2 - Importation et mise en format tableau des données • diatomfrlake
…
Le fichier .prn est constitué de trois colonnes séparés par une tabulation. La première colonne est seulement rempli pour la première ligne de la liste floristique. Elle renseigne le numéro de la lame et les informations complémentaires sur la station et l’établissement de cette liste floristique. Les informations sont séparés par des étoiles (*) et doit contenir 9 étoiles.

path <- system.file("", package = "diatomfrlake")
flore <-read_prn(file ="3723.prn",repertoire=path)
head(flore)
#>                                          V1   V2  V3  fichier
#> 1 2016001101*22/04/2020*AEAG*LUNAX*UO1***** ADMI  90 3723.prn
#> 2                                           PSBR 110 3723.prn
#> 3                                           PULA   4 3723.prn
#> 4                                           PRBS   1 3723.prn
#> 5                                           GOMP   9 3723.prn
#> 6                                           SLPP   2 3723.prn
formatting_flore(flore)
#> # A tibble: 43 × 4
#>    id                                        taxons    ab fichier 
#>    <chr>                                     <chr>  <dbl> <chr>   
#>  1 2016001101*22/04/2020*AEAG*LUNAX*UO1***** ADMI      90 3723.prn
#>  2 2016001101*22/04/2020*AEAG*LUNAX*UO1***** ADSB       4 3723.prn
#>  3 2016001101*22/04/2020*AEAG*LUNAX*UO1***** ALFF       1 3723.prn
#>  4 2016001101*22/04/2020*AEAG*LUNAX*UO1***** BNEG       6 3723.prn
#>  5 2016001101*22/04/2020*AEAG*LUNAX*UO1***** BRAC       1 3723.prn
#>  6 2016001101*22/04/2020*AEAG*LUNAX*UO1***** CAFM       1 3723.prn
#>  7 2016001101*22/04/2020*AEAG*LUNAX*UO1***** CCOS       1 3723.prn
#>  8 2016001101*22/04/2020*AEAG*LUNAX*UO1***** CCYM       1 3723.prn
#>  9 2016001101*22/04/2020*AEAG*LUNAX*UO1***** CKPP       2 3723.prn
#> 10 2016001101*22/04/2020*AEAG*LUNAX*UO1***** COCO       2 3723.prn
#> # … with 33 more rows
…
